5 Word Embeddings | Predictive modeling with text
…
Modern word embeddings are based on a statistical approach to modeling language, rather than a linguistics or rules-based approach.

We can determine these vectors for a corpus of text using word counts and matrix factorization, as outlined by Moody (2017). This approach is valuable because it allows practitioners to find word vectors for their own collections of text (with no need to rely on pre-trained vectors) using familiar techniques that are not difficult to understand. Let’s walk through how to do this using tidy data principles and sparse matrices, on the dataset of CFPB complaints. First, let’s filter out words that are used only rarely in this dataset and create a nested dataframe, with one row per complaint.

nested_words <- complaints %>%
  select(complaint_id, consumer_complaint_narrative) %>%
  unnest_tokens(word, consumer_complaint_narrative) %>%
  add_count(word) %>%
  filter(n >= 50) %>%
  select(-n) %>%
  nest(words = c(word))

nested_words

## # A tibble: 117,170 x 2
##    complaint_id          words
##           <dbl> <list<df[,1]>>
##  1      3384392       [18 × 1]
##  2      3417821       [71 × 1]
##  3      3433198       [77 × 1]
##  4      3366475       [69 × 1]
##  5      3385399      [213 × 1]
##  6      3444592       [19 × 1]
##  7      3379924      [121 × 1]
##  8      3446975       [22 × 1]
##  9      3214857       [64 × 1]
## 10      3417374       [44 × 1]
## # … with 117,160 more rows
…
plan(multiprocess) ## for parallel processing

tidy_pmi <- nested_words %>%
  mutate(words = future_map(words, slide_windows, 4,
    .progress = TRUE
  )) %>%
  unnest(words) %>%
  unite(window_id, complaint_id, window_id) %>%
  pairwise_pmi(word, window_id)

tidy_pmi

## # A tibble: 4,818,402 x 3
##    item1   item2           pmi
##    <chr>   <chr>         <dbl>
##  1 systems transworld  7.09   
##  2 inc     transworld  5.96   
##  3 is      transworld -0.135  
##  4 trying  transworld -0.107  
##  5 to      transworld -0.00206
##  6 collect transworld  1.07   
##  7 a       transworld -0.516  
##  8 debt    transworld  0.919  
##  9 that    transworld -0.542  
## 10 not     transworld -1.17   
## # … with 4,818,392 more rows
When PMI is high, the two words are associated with each other, likely to occur together. When PMI is low, the two words are not associated with each other, unlikely to occur together.

The step above used unite(), a function from tidyr that pastes multiple columns into one, to make a new column for window_id from the old window_id plus the complaint_id. This new column tells us which combination of window and complaint each word belongs to.

We can next determine the word vectors from the PMI values using singular value decomposition. Let’s use the widely_svd() function in widyr, creating 100-dimensional word embeddings. This matrix factorization is much faster than the previous step of identifying the skipgram windows and calculating PMI.

tidy_word_vectors <- tidy_pmi %>%
  widely_svd(
    item1, item2, pmi,
    nv = 100, maxit = 1000
  )

tidy_word_vectors

## # A tibble: 747,500 x 3
##    item1   dimension   value
##    <chr>       <int>   <dbl>
##  1 systems         1 0.0165 
##  2 inc             1 0.0191 
##  3 is              1 0.0202 
##  4 trying          1 0.0423 
##  5 to              1 0.00904
##  6 collect         1 0.0370 
##  7 a               1 0.0126 
##  8 debt            1 0.0430 
##  9 that            1 0.0136 
## 10 not             1 0.0213 
## # … with 747,490 more rows
…
nearest_synonyms <- function(df, token) {
  df %>%
    widely(~ . %*% (.[token, ]), sort = TRUE)(item1, dimension, value) %>%
    select(-item2)
}

This function takes the tidy word embeddings as input, along with a word (or token) as a string. It uses matrix multiplication to find which words are closer or farther to the input word, and returns a dataframe sorted by similarity.

What words are closest to "error" in the dataset of CFPB complaints, as determined by our word embeddings?

tidy_word_vectors %>%
  nearest_synonyms("error")

## # A tibble: 7,475 x 2
##    item1      value
##    <chr>      <dbl>
##  1 error     0.0373
##  2 issue     0.0237
##  3 problem   0.0235
##  4 issues    0.0194
##  5 errors    0.0187
##  6 mistake   0.0185
##  7 system    0.0170
##  8 problems  0.0151
##  9 late      0.0141
## 10 situation 0.0138
## # … with 7,465 more rows

Errors, problems, issues, mistakes – sounds bad!

What is closest to the word "month"?

tidy_word_vectors %>%
  nearest_synonyms("month")

## # A tibble: 7,475 x 2
##    item1     value
##    <chr>     <dbl>
##  1 month    0.0597
##  2 payment  0.0407
##  3 months   0.0355
##  4 payments 0.0325
##  5 year     0.0314
##  6 days     0.0274
##  7 balance  0.0267
##  8 xx       0.0265
##  9 years    0.0262
## 10 monthly  0.0260
## # … with 7,465 more rows

We see words about payments, along with other time periods such as days and years. Notice that we did not stem this text data (see Chapter 4) but the word embeddings learned that singular and plural forms of words belong together.

What words are closest in this embedding space to "fee"?

tidy_word_vectors %>%
  nearest_synonyms("fee")

## # A tibble: 7,475 x 2
##    item1      value
##    <chr>      <dbl>
##  1 fee       0.0762
##  2 fees      0.0605
##  3 charge    0.0421
##  4 interest  0.0410
##  5 charged   0.0387
##  6 late      0.0377
##  7 charges   0.0366
##  8 overdraft 0.0327
##  9 charging  0.0246
## 10 month     0.0220
## # … with 7,465 more rows
…
