4 Stemming | Predictive modeling with text
…
Trees, we see once again, are important in this story; the singular form appears 76 times and the plural form appears twelve times. (We’ll come back to how we might handle the apostrophe in "tree's" later in this chapter.)

What if we aren’t interested in the difference between "trees" and "tree" and we want to treat both together? That idea is at the heart of stemming, the process of identifying the base word (or stem) for a dataset of words. Stemming is concerned with the linguistics subfield of morphology, how words are formed. In this example, "trees" would lose its letter "s" while "tree" stays the same. If we counted word frequencies again after stemming, we would find that there are 88 occurrences of the stem "tree" (89, if we also find the stem for "tree's").

4.1 How to stem text in R

There have been many algorithms built for stemming words over the past half century or so; we’ll focus on two approaches. The first is the stemming algorithm of Porter (1980), probably the most widely used stemmer for English. Porter himself released the algorithm implemented in the framework Snowball with an open-source license; you can use it from R via the SnowballC package. (It has been extended to languages other than English as well.)

library(SnowballC)

tidy_fir_tree %>%
  mutate(stem = wordStem(word)) %>%
  count(stem, sort = TRUE)

## # A tibble: 570 x 2
##    stem        n
##    <chr>   <int>
##  1 tree       88
##  2 fir        34
##  3 littl      23
##  4 said       22
##  5 stori      16
##  6 thought    16
##  7 branch     15
##  8 on         15
##  9 came       14
## 10 know       14
## # … with 560 more rows

Take a look at those stems. Notice that we do now have 88 incidences of “tree”. Also notice that some words don’t look like they are spelled as real words; this is normal and expected with this stemming algorithm. The Porter algorithm identifies the stem of both “story” and “stories” as “stori”, not a regular English word but instead a special stem object.

If you want to tokenize and stem your text data, you can try out the function tokenize_word_stems() from the tokenizers package, which implements Porter stemming just like what we demonstrated here. For more on tokenization, see Chapter 2.

The Porter stemmer is an algorithm that starts with a word and ends up with a single stem, but that’s not the only kind of stemmer out there. Another class of stemmer are dictionary-based stemmers. One such stemmer is the stemming algorithm of the Hunspell library. The “Hun” in Hunspell stands for Hungarian; this set of NLP algorithms was originally written to handle Hungarian but has since been extended to handle many languages with compound words and complicated morphology. The Hunspell library is used mostly as a spell checker, but as part of identifying correct spellings, this library identifies word stems as well. You can use the Hunspell library from R via the hunspell package.

library(hunspell)

tidy_fir_tree %>%
  mutate(stem = hunspell_stem(word)) %>%
  unnest(stem) %>%
  count(stem, sort = TRUE)

## # A tibble: 595 x 2
##    stem       n
##    <chr>  <int>
##  1 tree      89
##  2 fir       34
##  3 little    23
##  4 said      22
##  5 story     16
##  6 branch    15
##  7 one       15
##  8 came      14
##  9 know      14
## 10 now       14
## # … with 585 more rows
…
You will often see stemming as part of NLP pipelines, sometimes without much comment about when it is helpful or not. We encourage you to think of stemming as a preprocessing step in text modeling, one that must be thought through and chosen (or not) with good judgment.

Why does stemming often help, if you are training a machine learning model for text? Stemming reduces the sparsity of text data. Let’s see this in action, with a dataset of United States Supreme Court opinions available in the scotus package. How many words are there, after removing a standard dataset of stopwords?

library(scotus)

tidy_scotus <- scotus_sample %>%
  unnest_tokens(word, text) %>%
  anti_join(get_stopwords())

tidy_scotus %>%
  count(word, sort = TRUE)

## # A tibble: 89,617 x 2
##    word       n
##    <chr>  <int>
##  1 court  83428
##  2 v      59193
##  3 state  45415
##  4 states 39119
##  5 case   35319
##  6 act    32506
##  7 s.ct   32003
##  8 u.s    31376
##  9 united 30803
## 10 upon   30533
## # … with 89,607 more rows
…
It is possible to split tokens not only on white space but also on punctuation, using a regular expression (see Appendix 12).

fir_tree_counts <- fir_tree %>%
  unnest_tokens(word, text, token = "regex", pattern = "\\s+|[[:punct:]]+") %>%
  anti_join(get_stopwords()) %>%
  mutate(stem = wordStem(word)) %>%
  count(stem, sort = TRUE)

fir_tree_counts

## # A tibble: 572 x 2
##    stem        n
##    <chr>   <int>
##  1 tree       89
##  2 fir        34
##  3 littl      23
##  4 said       22
##  5 stori      16
##  6 thought    16
##  7 branch     15
##  8 on         15
##  9 came       14
## 10 know       14
## # … with 562 more rows
…
stemming

## # A tibble: 1,547 x 4
##    `Original word` `Remove S` `Plural endings` `Porter stemming`
##    <chr>           <chr>      <chr>            <chr>            
##  1 far             far        far              far              
##  2 forest          forest     forest           forest           
##  3 warm            warm       warm             warm             
##  4 sun             sun        sun              sun              
##  5 fresh           fresh      fresh            fresh            
##  6 air             air        air              air              
##  7 made            made       made             made             
##  8 sweet           sweet      sweet            sweet            
##  9 resting         resting    resting          rest             
## 10 place           place      place            place            
## # … with 1,537 more rows
…
